{
  "users": [
    {
      "id": "1",
      "login": "admin",
      "name": "Administrator",
      "isAdmin": true,
      "password": "$2a$10$U5nh3TtUAZzn7xIdqFSY2.qAZN8UTL83eHJlj8WcT9sEQmIY6Ra5u"
    },
    {
      "login": "skladnik",
      "name": "Dummy Adminson",
      "id": "VIkADm9",
      "isAdmin": false,
      "password": "$2a$10$d5wT8.ipn1UokQ/FrYSsQ.XAmyp.HRbVzUxTYumWxfVtvEZA1UbEa"
    },
    {
      "login": "sekretarka",
      "name": "Sekretářka",
      "id": "kUH7DXs",
      "isAdmin": false,
      "password": "$2a$10$b1yTmTtLLM0Okl3ovJK/tedKR8us.qOfaIDNT/XO07MLxO3pHe1h2"
    },
    {
      "login": "lopliok",
      "name": "Lopiok",
      "id": "LOP1IOK",
      "isAdmin": false,
      "password": "$2a$10$II6.maX5Z/6SXgMux4EbiuE0KyQWBgj.WLd2ESiZKNqW81Ms1L45q"
    }
  ],
  "customers": [
    {
      "name": "John Doe",
      "id": "1",
      "note": "Lorem Ipsum je demonstrativní výplňový text používaný v tiskařském a knihařském průmyslu. Lorem Ipsum je považováno za standard v této oblasti už od začátku 16. století, kdy dnes neznámý tiskař vzal kusy textu a na jejich základě vytvořil speciální vzorovou knihu. Jeho odkaz nevydržel pouze pět století, on přežil i nástup elektronické sazby v podstatě beze změny. Nejvíce popularizováno bylo Lorem Ipsum v šedesátých letech 20. století, kdy byly vydávány speciální vzorníky s jeho pasážemi a později pak díky počítačovým DTP programům jako Aldus PageMaker.",
      "email": "",
      "city": "London"
    },
    {
      "name": "Joe Bloggssss",
      "id": "2"
    },
    {
      "name": "new one",
      "id": "ryyHRuw0-",
      "email": "lop@gf.cz",
      "phone": "7667",
      "city": "234",
      "note": "save"
    },
    {
      "name": "Tomáš Marný",
      "email": "noreply@offline.com",
      "id": "gBHFRlj",
      "city": "Brno"
    },
    {
      "name": "other one",
      "email": "other@one.com",
      "id": "gq6Tq3D"
    }
  ],
  "contracts": [
    {
      "id": "1",
      "name": "Židle",
      "description": "Standardní židle ke kuchyňskému stolu, celodřevěná.Zelená.",
      "price": "1 110,00 Kč",
      "status": "IN_PROGRESS",
      "customerId": "ryyHRuw0-",
      "dateCreated": "2017-10-10T10:23:45.333Z",
      "dateEdited": "2018-02-08T19:46:39.865Z",
      "deadline": "2018-02-18T00:00:00.000Z"
    },
    {
      "id": "2",
      "name": "Okenní rám",
      "description": "Rám k půdnímu okénku kulatý, průměru 300m",
      "price": 1500,
      "status": "DONE",
      "customerId": "2",
      "dateCreated": "2017-10-16T10:23:45.333Z",
      "dateEdited": "2018-02-02T16:45:13.959Z",
      "deadline": "2018-02-06"
    },
    {
      "id": "3",
      "name": "Váleček na těsto",
      "description": "Běžný váleček na těsto. po okrajích vysoustružit ozdobný vzor tvaru pily, držadla zakončená kuličkou.",
      "price": "70,00 Kč",
      "status": "IN_PROGRESS",
      "customerId": "ryyHRuw0-",
      "dateCreated": "2017-12-22T10:23:45.333Z",
      "dateEdited": "2018-02-02T16:19:00.431Z",
      "deadline": "2018-02-02T16:19:00.431Z"
    },
    {
      "name": "Table",
      "price": "12345",
      "description": "šišatý",
      "customerId": "1",
      "status": "CANCELED",
      "id": "l0smRBl",
      "dateCreated": "2018-01-02T10:23:45.333Z",
      "dateEdited": "2018-02-02T16:31:55.113Z",
      "deadline": "2018-02-02T16:31:55.113Z"
    },
    {
      "name": "new contract",
      "price": "0",
      "customerId": "ryyHRuw0-",
      "description": "new",
      "status": "NEW",
      "id": "Rq88ZOk",
      "dateCreated": "2017-10-10T10:23:45.333Z",
      "dateEdited": "2018-02-02T10:31:08.593Z",
      "deadline": ""
    },
    {
      "dateCreated": "2018-02-01T10:23:45.333Z",
      "name": "Lavice",
      "price": "30000,00 Kč",
      "customerId": "gBHFRlj",
      "status": "NEW",
      "description": "pro medvěda ledního",
      "id": "sNUweLs",
      "dateEdited": "2018-02-02T10:31:18.680Z"
    },
    {
      "name": "Stolička",
      "price": "400,00 Kč",
      "description": "",
      "dateCreated": "2018-02-02T18:38:45.916Z",
      "customerId": "1",
      "status": "NEW",
      "id": "40afg6k"
    }
  ],
  "statuses": [
    {
      "status": "NEW"
    },
    {
      "status": "IN_PROGRESS"
    },
    {
      "status": "DONE"
    },
    {
      "status": "CANCELED"
    }
  ],
  "comments": [
    {
      "contractId": "3",
      "text": "text comentare",
      "id": 1,
      "date": "2017-12-01T10:23:45.333Z"
    },
    {
      "id": 13,
      "text": "adad",
      "date": "2018-02-02T19:41:43.803Z",
      "contractId": "2"
    },
    {
      "id": 14,
      "text": "ffff",
      "date": "2018-02-02T20:17:02.221Z",
      "contractId": "1"
    }
  ]
}